%YAML 1.1
%TAG !u! tag:unity3d.com,2011:
--- !u!1001 &8651831579430765951
PrefabInstance:
  m_ObjectHideFlags: 0
  serializedVersion: 2
  m_Modification:
    m_TransformParent: {fileID: 0}
    m_Modifications:
    - target: {fileID: 159630, guid: b46744b5c6ef29e4eac9818b54c38998, type: 3}
      propertyPath: m_StaticEditorFlags
      value: 2147483647
      objectReference: {fileID: 0}
    - target: {fileID: 167610, guid: b46744b5c6ef29e4eac9818b54c38998, type: 3}
      propertyPath: m_Name
      value: Billboard 2 Variant
      objectReference: {fileID: 0}
    - target: {fileID: 167610, guid: b46744b5c6ef29e4eac9818b54c38998, type: 3}
      propertyPath: m_StaticEditorFlags
      value: 2147483647
      objectReference: {fileID: 0}
    - target: {fileID: 409664, guid: b46744b5c6ef29e4eac9818b54c38998, type: 3}
      propertyPath: m_RootOrder
      value: 0
      objectReference: {fileID: 0}
    - target: {fileID: 409664, guid: b46744b5c6ef29e4eac9818b54c38998, type: 3}
      propertyPath: m_LocalPosition.x
      value: -23.65
      objectReference: {fileID: 0}
    - target: {fileID: 409664, guid: b46744b5c6ef29e4eac9818b54c38998, type: 3}
      propertyPath: m_LocalPosition.y
      value: 2.6249633
      objectReference: {fileID: 0}
    - target: {fileID: 409664, guid: b46744b5c6ef29e4eac9818b54c38998, type: 3}
      propertyPath: m_LocalPosition.z
      value: 57.48
      objectReference: {fileID: 0}
    - target: {fileID: 409664, guid: b46744b5c6ef29e4eac9818b54c38998, type: 3}
      propertyPath: m_LocalRotation.w
      value: 0.7071076
      objectReference: {fileID: 0}
    - target: {fileID: 409664, guid: b46744b5c6ef29e4eac9818b54c38998, type: 3}
      propertyPath: m_LocalRotation.x
      value: -0
      objectReference: {fileID: 0}
    - target: {fileID: 409664, guid: b46744b5c6ef29e4eac9818b54c38998, type: 3}
      propertyPath: m_LocalRotation.y
      value: -0.707106
      objectReference: {fileID: 0}
    - target: {fileID: 409664, guid: b46744b5c6ef29e4eac9818b54c38998, type: 3}
      propertyPath: m_LocalRotation.z
      value: -0
      objectReference: {fileID: 0}
    - target: {fileID: 409664, guid: b46744b5c6ef29e4eac9818b54c38998, type: 3}
      propertyPath: m_LocalEulerAnglesHint.y
      value: -89.9999
      objectReference: {fileID: 0}
    m_RemovedComponents: []
  m_SourcePrefab: {fileID: 100100000, guid: b46744b5c6ef29e4eac9818b54c38998, type: 3}
--- !u!1 &8651831579430669253 stripped
GameObject:
  m_CorrespondingSourceObject: {fileID: 167610, guid: b46744b5c6ef29e4eac9818b54c38998, type: 3}
  m_PrefabInstance: {fileID: 8651831579430765951}
  m_PrefabAsset: {fileID: 0}
--- !u!208 &1561806694
NavMeshObstacle:
  m_ObjectHideFlags: 0
  m_CorrespondingSourceObject: {fileID: 0}
  m_PrefabInstance: {fileID: 0}
  m_PrefabAsset: {fileID: 0}
  m_GameObject: {fileID: 8651831579430669253}
  m_Enabled: 1
  serializedVersion: 3
  m_Shape: 1
  m_Extents: {x: 1, y: 1, z: 1}
  m_MoveThreshold: 0.1
  m_Carve: 1
  m_CarveOnlyStationary: 1
  m_Center: {x: 0, y: 1, z: 0}
  m_TimeToStationary: 0.5
