%YAML 1.1
%TAG !u! tag:unity3d.com,2011:
--- !u!162 &1
EditorUserSettings:
  m_ObjectHideFlags: 0
  serializedVersion: 4
  m_ConfigSettings:
    RecentlyUsedSceneGuid-0:
      value: 5000005301015e0d0b0c5e2147250d44444f4f7f287a75327a7e4e61b2e4316c
      flags: 0
    RecentlyUsedSceneGuid-1:
      value: 0508505155050f0e0b575d7644770816424f4d7c7a292435782b4d61e6b96669
      flags: 0
    RecentlyUsedSceneGuid-2:
      value: 5452075f53055c085c085c2414770b12131619292f7d76637a2d4a63bab06369
      flags: 0
    RecentlyUsedSceneGuid-3:
      value: 5b57045455560f5a5c080e7514265b44414e4a7c2e7873602f714f32e6e2316e
      flags: 0
    RecentlyUsedSceneGuid-4:
      value: 5a50500755020f0c5e08087413205a44414f4b7e7d78706875711836bae1603c
      flags: 0
    RecentlyUsedSceneGuid-5:
      value: 5402575457055e080c5a5d7a15770f4446151c7d28297669747d4e31b2e56168
      flags: 0
    RecentlyUsedSceneGuid-6:
      value: 0703055700505d0a5f0c5d2648250844144e1e7c297d7060297e4562bbe66539
      flags: 0
    RecentlyUsedSceneGuid-7:
      value: 50550d53070d0d5f59085e2742730b4443154879782c70627f78196bbbb56d6d
      flags: 0
    RecentlyUsedSceneGuid-8:
      value: 065301055703510f5f0a597014775d464f16497974797f35747b1c32b2e6366e
      flags: 0
    RecentlyUsedSceneGuid-9:
      value: 02000400570d5f5a5508582016770f4817161b7c282a24352c701e31b2b26639
      flags: 0
    vcSharedLogLevel:
      value: 0d5e400f0650
      flags: 0
  m_VCAutomaticAdd: 1
  m_VCDebugCom: 0
  m_VCDebugCmd: 0
  m_VCDebugOut: 0
  m_SemanticMergeMode: 2
  m_DesiredImportWorkerCount: 4
  m_StandbyImportWorkerCount: 2
  m_IdleImportWorkerShutdownDelay: 60000
  m_VCShowFailedCheckout: 1
  m_VCOverwriteFailedCheckoutAssets: 1
  m_VCProjectOverlayIcons: 1
  m_VCHierarchyOverlayIcons: 1
  m_VCOtherOverlayIcons: 1
  m_VCAllowAsyncUpdate: 1
  m_ArtifactGarbageCollection: 1
